pipelined_mips_tb.vcd
$date
	Sun Dec 14 18:41:14 2025
$end
$version
	Icarus Verilog
$end
$timescale
	1s
$end
$scope module tb_pipelined_mips_top $end
$var wire 32 ! alu_out [31:0] $end
$var wire 32 " instr [31:0] $end
$var wire 32 # pc [31:0] $end
$var wire 32 $ rd3 [31:0] $end
$var wire 32 % rd_dm [31:0] $end
$var wire 32 & wd_dm [31:0] $end
$var wire 1 ' we_dm $end
$var reg 1 ( clk $end
$var reg 5 ) ra3 [4:0] $end
$var reg 1 * rst $end
$var integer 32 + cycle_count [31:0] $end
$scope function decode_instruction $end
$var reg 6 , funct [5:0] $end
$var reg 32 - inst [31:0] $end
$var reg 6 . opcode [5:0] $end
$upscope $end
$scope module DUT $end
$var wire 1 ( clk $end
$var wire 5 / ra3 [4:0] $end
$var wire 1 * rst $end
$var wire 32 0 write_data [31:0] $end
$var wire 32 1 read_data [31:0] $end
$var wire 32 2 rd3 [31:0] $end
$var wire 32 3 pc [31:0] $end
$var wire 1 4 mem_write $end
$var wire 32 5 instr [31:0] $end
$var wire 32 6 data_addr [31:0] $end
$scope module cpu $end
$var wire 1 ( clk $end
$var wire 5 7 ra3 [4:0] $end
$var wire 1 * rst $end
$var wire 1 4 we_dm $end
$var wire 32 8 wd_dm [31:0] $end
$var wire 32 9 rd_dm [31:0] $end
$var wire 32 : rd3 [31:0] $end
$var wire 32 ; pc_current [31:0] $end
$var wire 32 < instr [31:0] $end
$var wire 32 = alu_out [31:0] $end
$scope module dp $end
$var wire 1 ( clk $end
$var wire 5 > final_write_reg_W [4:0] $end
$var wire 1 ? flush_D $end
$var wire 1 @ pc_src_D $end
$var wire 5 A ra3 [4:0] $end
$var wire 1 * rst $end
$var wire 1 B zero_E $end
$var wire 1 C zero_D $end
$var wire 5 D write_reg_tmp_E [4:0] $end
$var wire 5 E write_reg_W [4:0] $end
$var wire 5 F write_reg_M [4:0] $end
$var wire 5 G write_reg_E [4:0] $end
$var wire 1 H we_reg_W $end
$var wire 1 I we_reg_M $end
$var wire 1 J we_reg_E $end
$var wire 1 K we_reg_D $end
$var wire 1 4 we_dm_M $end
$var wire 1 L we_dm_E $end
$var wire 1 M we_dm_D $end
$var wire 32 N wd_dm_M [31:0] $end
$var wire 1 O stall_F $end
$var wire 1 P stall_D $end
$var wire 5 Q shamt_E [4:0] $end
$var wire 5 R shamt_D [4:0] $end
$var wire 32 S sext_imm_E [31:0] $end
$var wire 32 T sext_imm_D [31:0] $end
$var wire 5 U rt_E [4:0] $end
$var wire 5 V rt_D [4:0] $end
$var wire 5 W rs_E [4:0] $end
$var wire 5 X rs_D [4:0] $end
$var wire 32 Y result_W [31:0] $end
$var wire 1 Z reg_dst_E $end
$var wire 1 [ reg_dst_D $end
$var wire 32 \ rd_dm_W [31:0] $end
$var wire 32 ] rd_dm [31:0] $end
$var wire 5 ^ rd_E [4:0] $end
$var wire 5 _ rd_D [4:0] $end
$var wire 32 ` rd3 [31:0] $end
$var wire 32 a rd2_E [31:0] $end
$var wire 32 b rd2_D [31:0] $end
$var wire 32 c rd1_E [31:0] $end
$var wire 32 d rd1_D [31:0] $end
$var wire 32 e pc_plus4_W [31:0] $end
$var wire 32 f pc_plus4_M [31:0] $end
$var wire 32 g pc_plus4_F [31:0] $end
$var wire 32 h pc_plus4_E [31:0] $end
$var wire 32 i pc_plus4_D [31:0] $end
$var wire 32 j pc_next_F [31:0] $end
$var wire 32 k pc_F [31:0] $end
$var wire 6 l opcode_D [5:0] $end
$var wire 64 m mult_product_M [63:0] $end
$var wire 64 n mult_product_E [63:0] $end
$var wire 32 o lo_out_W [31:0] $end
$var wire 32 p lo_out_M [31:0] $end
$var wire 1 q jump_reg_D $end
$var wire 1 r jump_D $end
$var wire 32 s jta_D [31:0] $end
$var wire 1 t jal_W $end
$var wire 1 u jal_M $end
$var wire 1 v jal_E $end
$var wire 1 w jal_D $end
$var wire 32 x instr_F [31:0] $end
$var wire 32 y instr_D [31:0] $end
$var wire 16 z imm_D [15:0] $end
$var wire 1 { hilo_wd_M $end
$var wire 1 | hilo_wd_E $end
$var wire 1 } hilo_wd_D $end
$var wire 2 ~ hilo_mux_ctrl_W [1:0] $end
$var wire 2 !" hilo_mux_ctrl_M [1:0] $end
$var wire 2 "" hilo_mux_ctrl_E [1:0] $end
$var wire 2 #" hilo_mux_ctrl_D [1:0] $end
$var wire 32 $" hi_out_W [31:0] $end
$var wire 32 %" hi_out_M [31:0] $end
$var wire 6 &" funct_D [5:0] $end
$var wire 2 '" forward_B [1:0] $end
$var wire 2 (" forward_A [1:0] $end
$var wire 1 )" flush_E $end
$var wire 32 *" final_wd_W [31:0] $end
$var wire 1 +" dm2reg_W $end
$var wire 1 ," dm2reg_M $end
$var wire 1 -" dm2reg_E $end
$var wire 1 ." dm2reg_D $end
$var wire 32 /" bta_D [31:0] $end
$var wire 1 0" branch_D $end
$var wire 32 1" ba_D [31:0] $end
$var wire 1 2" alu_src_E $end
$var wire 1 3" alu_src_D $end
$var wire 32 4" alu_pb_fwd [31:0] $end
$var wire 32 5" alu_pb_E [31:0] $end
$var wire 32 6" alu_pa_fwd [31:0] $end
$var wire 32 7" alu_out_W [31:0] $end
$var wire 32 8" alu_out_M [31:0] $end
$var wire 32 9" alu_out_E [31:0] $end
$var wire 4 :" alu_ctrl_E [3:0] $end
$var wire 4 ;" alu_ctrl_D [3:0] $end
$var reg 32 <" alu_or_hilo_W [31:0] $end
$var reg 32 =" cmp1_D [31:0] $end
$var reg 32 >" cmp2_D [31:0] $end
$scope module alu0 $end
$var wire 32 ?" a [31:0] $end
$var wire 1 B zero $end
$var wire 5 @" shamt [4:0] $end
$var wire 4 A" op [3:0] $end
$var wire 32 B" b [31:0] $end
$var reg 32 C" y [31:0] $end
$upscope $end
$scope module alu_src_mux $end
$var wire 32 D" a [31:0] $end
$var wire 32 E" y [31:0] $end
$var wire 1 2" sel $end
$var wire 32 F" b [31:0] $end
$var parameter 32 G" WIDTH $end
$upscope $end
$scope module branch_adder $end
$var wire 32 H" b [31:0] $end
$var wire 32 I" y [31:0] $end
$var wire 32 J" a [31:0] $end
$upscope $end
$scope module cu $end
$var wire 6 K" funct [5:0] $end
$var wire 2 L" hilo_mux_ctrl [1:0] $end
$var wire 1 } hilo_wd $end
$var wire 1 q jump_reg $end
$var wire 6 M" opcode [5:0] $end
$var wire 1 K we_reg $end
$var wire 1 M we_dm $end
$var wire 1 [ reg_dst $end
$var wire 1 r jump $end
$var wire 1 N" jr_signal $end
$var wire 1 w jal $end
$var wire 1 O" hilo_wd_internal $end
$var wire 2 P" hilo_mux_internal [1:0] $end
$var wire 1 ." dm2reg $end
$var wire 1 0" branch $end
$var wire 1 3" alu_src $end
$var wire 2 Q" alu_op [1:0] $end
$var wire 4 R" alu_ctrl [3:0] $end
$scope module ad $end
$var wire 4 S" alu_ctrl [3:0] $end
$var wire 6 T" funct [5:0] $end
$var wire 1 N" jr $end
$var wire 1 O" hilo_wd $end
$var wire 2 U" hilo_mux_ctrl [1:0] $end
$var wire 2 V" alu_op [1:0] $end
$var reg 4 W" ctrl [3:0] $end
$var reg 2 X" hilo_mux_r [1:0] $end
$var reg 1 O" hilo_wd_r $end
$var reg 1 N" jr_r $end
$upscope $end
$scope module md $end
$var wire 6 Y" opcode [5:0] $end
$var wire 1 K we_reg $end
$var wire 1 M we_dm $end
$var wire 1 [ reg_dst $end
$var wire 1 r jump $end
$var wire 1 w jal $end
$var wire 1 ." dm2reg $end
$var wire 1 0" branch $end
$var wire 1 3" alu_src $end
$var wire 2 Z" alu_op [1:0] $end
$var reg 10 [" ctrl [9:0] $end
$upscope $end
$upscope $end
$scope module ex_mem $end
$var wire 32 \" alu_out_E [31:0] $end
$var wire 1 ( clk $end
$var wire 1 * rst $end
$var wire 32 ]" wd_dm_E [31:0] $end
$var wire 5 ^" write_reg_E [4:0] $end
$var wire 1 J we_reg_E $end
$var wire 1 L we_dm_E $end
$var wire 32 _" pc_plus4_E [31:0] $end
$var wire 64 `" mult_product_E [63:0] $end
$var wire 1 v jal_E $end
$var wire 1 | hilo_wd_E $end
$var wire 2 a" hilo_mux_ctrl_E [1:0] $end
$var wire 1 -" dm2reg_E $end
$var reg 32 b" alu_out_M [31:0] $end
$var reg 1 ," dm2reg_M $end
$var reg 2 c" hilo_mux_ctrl_M [1:0] $end
$var reg 1 { hilo_wd_M $end
$var reg 1 u jal_M $end
$var reg 64 d" mult_product_M [63:0] $end
$var reg 32 e" pc_plus4_M [31:0] $end
$var reg 32 f" wd_dm_M [31:0] $end
$var reg 1 4 we_dm_M $end
$var reg 1 I we_reg_M $end
$var reg 5 g" write_reg_M [4:0] $end
$upscope $end
$scope module fwd $end
$var wire 1 I we_reg_M $end
$var wire 5 h" write_reg_M [4:0] $end
$var wire 5 i" write_reg_W [4:0] $end
$var wire 1 H we_reg_W $end
$var wire 5 j" rt_E [4:0] $end
$var wire 5 k" rs_E [4:0] $end
$var wire 2 l" forward_B [1:0] $end
$var wire 2 m" forward_A [1:0] $end
$var reg 2 n" forward_A_sel [1:0] $end
$var reg 2 o" forward_B_sel [1:0] $end
$upscope $end
$scope module hdu $end
$var wire 1 0" branch_D $end
$var wire 1 p" branch_stall $end
$var wire 1 )" flush_E $end
$var wire 1 q" jr_stall $end
$var wire 1 q jump_reg_D $end
$var wire 1 r" lw_stall $end
$var wire 5 s" rs_D [4:0] $end
$var wire 5 t" rt_D [4:0] $end
$var wire 1 P stall_D $end
$var wire 1 O stall_F $end
$var wire 1 I we_reg_M $end
$var wire 5 u" write_reg_E [4:0] $end
$var wire 5 v" write_reg_M [4:0] $end
$var wire 5 w" write_reg_W [4:0] $end
$var wire 1 H we_reg_W $end
$var wire 1 J we_reg_E $end
$var wire 5 x" rt_E [4:0] $end
$var wire 1 -" dm2reg_E $end
$upscope $end
$scope module hilo $end
$var wire 1 ( clk $end
$var wire 64 y" product [63:0] $end
$var wire 1 * rst $end
$var wire 1 { we $end
$var reg 32 z" hi [31:0] $end
$var reg 32 {" lo [31:0] $end
$upscope $end
$scope module id_ex $end
$var wire 4 |" alu_ctrl_D [3:0] $end
$var wire 1 3" alu_src_D $end
$var wire 1 ( clk $end
$var wire 1 ." dm2reg_D $end
$var wire 1 )" flush $end
$var wire 2 }" hilo_mux_ctrl_D [1:0] $end
$var wire 1 } hilo_wd_D $end
$var wire 1 w jal_D $end
$var wire 5 ~" rd_D [4:0] $end
$var wire 1 [ reg_dst_D $end
$var wire 5 !# rs_D [4:0] $end
$var wire 1 * rst $end
$var wire 5 "# rt_D [4:0] $end
$var wire 5 ## shamt_D [4:0] $end
$var wire 1 M we_dm_D $end
$var wire 1 K we_reg_D $end
$var wire 32 $# sext_imm_D [31:0] $end
$var wire 32 %# rd2_D [31:0] $end
$var wire 32 &# rd1_D [31:0] $end
$var wire 32 '# pc_plus4_D [31:0] $end
$var reg 4 (# alu_ctrl_E [3:0] $end
$var reg 1 2" alu_src_E $end
$var reg 1 -" dm2reg_E $end
$var reg 2 )# hilo_mux_ctrl_E [1:0] $end
$var reg 1 | hilo_wd_E $end
$var reg 1 v jal_E $end
$var reg 32 *# pc_plus4_E [31:0] $end
$var reg 32 +# rd1_E [31:0] $end
$var reg 32 ,# rd2_E [31:0] $end
$var reg 5 -# rd_E [4:0] $end
$var reg 1 Z reg_dst_E $end
$var reg 5 .# rs_E [4:0] $end
$var reg 5 /# rt_E [4:0] $end
$var reg 32 0# sext_imm_E [31:0] $end
$var reg 5 1# shamt_E [4:0] $end
$var reg 1 L we_dm_E $end
$var reg 1 J we_reg_E $end
$upscope $end
$scope module if_id $end
$var wire 1 ( clk $end
$var wire 1 2# enable $end
$var wire 1 ? flush $end
$var wire 1 * rst $end
$var wire 32 3# pc_plus4_F [31:0] $end
$var wire 32 4# instr_F [31:0] $end
$var reg 32 5# instr_D [31:0] $end
$var reg 32 6# pc_plus4_D [31:0] $end
$upscope $end
$scope module mem_to_reg_mux $end
$var wire 32 7# a [31:0] $end
$var wire 32 8# y [31:0] $end
$var wire 1 +" sel $end
$var wire 32 9# b [31:0] $end
$var parameter 32 :# WIDTH $end
$upscope $end
$scope module mem_wb $end
$var wire 32 ;# alu_out_M [31:0] $end
$var wire 1 ( clk $end
$var wire 1 ," dm2reg_M $end
$var wire 32 <# hi_out_M [31:0] $end
$var wire 2 =# hilo_mux_ctrl_M [1:0] $end
$var wire 1 u jal_M $end
$var wire 32 ># lo_out_M [31:0] $end
$var wire 32 ?# pc_plus4_M [31:0] $end
$var wire 1 * rst $end
$var wire 1 I we_reg_M $end
$var wire 5 @# write_reg_M [4:0] $end
$var wire 32 A# rd_dm_M [31:0] $end
$var reg 32 B# alu_out_W [31:0] $end
$var reg 1 +" dm2reg_W $end
$var reg 32 C# hi_out_W [31:0] $end
$var reg 2 D# hilo_mux_ctrl_W [1:0] $end
$var reg 1 t jal_W $end
$var reg 32 E# lo_out_W [31:0] $end
$var reg 32 F# pc_plus4_W [31:0] $end
$var reg 32 G# rd_dm_W [31:0] $end
$var reg 1 H we_reg_W $end
$var reg 5 H# write_reg_W [4:0] $end
$upscope $end
$scope module mult $end
$var wire 32 I# a [31:0] $end
$var wire 32 J# b [31:0] $end
$var wire 64 K# product [63:0] $end
$upscope $end
$scope module pc_adder $end
$var wire 32 L# b [31:0] $end
$var wire 32 M# y [31:0] $end
$var wire 32 N# a [31:0] $end
$upscope $end
$scope module pc_reg $end
$var wire 1 ( clk $end
$var wire 32 O# d [31:0] $end
$var wire 1 P# en $end
$var wire 1 * rst $end
$var parameter 32 Q# WIDTH $end
$var reg 32 R# q [31:0] $end
$upscope $end
$scope module rf $end
$var wire 1 ( clk $end
$var wire 5 S# ra1 [4:0] $end
$var wire 5 T# ra2 [4:0] $end
$var wire 5 U# ra3 [4:0] $end
$var wire 32 V# rd1 [31:0] $end
$var wire 32 W# rd2 [31:0] $end
$var wire 32 X# rd3 [31:0] $end
$var wire 1 * rst $end
$var wire 5 Y# wa [4:0] $end
$var wire 32 Z# wd [31:0] $end
$var wire 1 H we $end
$var wire 32 [# bypass_rd3 [31:0] $end
$var wire 32 \# bypass_rd2 [31:0] $end
$var wire 32 ]# bypass_rd1 [31:0] $end
$var integer 32 ^# n [31:0] $end
$upscope $end
$scope module se $end
$var wire 16 _# a [15:0] $end
$var wire 32 `# y [31:0] $end
$upscope $end
$scope module write_reg_mux $end
$var wire 5 a# a [4:0] $end
$var wire 5 b# b [4:0] $end
$var wire 1 Z sel $end
$var wire 5 c# y [4:0] $end
$var parameter 32 d# WIDTH $end
$upscope $end
$upscope $end
$upscope $end
$scope module data_memory $end
$var wire 6 e# a [5:0] $end
$var wire 1 ( clk $end
$var wire 32 f# rd [31:0] $end
$var wire 1 * rst $end
$var wire 32 g# wd [31:0] $end
$var wire 1 4 we $end
$var integer 32 h# n [31:0] $end
$upscope $end
$scope module instruction_memory $end
$var wire 6 i# a [5:0] $end
$var wire 32 j# rd [31:0] $end
$upscope $end
$upscope $end
$upscope $end
$enddefinitions $end
$comment Show the parameter values. $end
$dumpall
b101 d#
b100000 Q#
b100000 :#
b100000 G"
$end
#0
$dumpvars
b100000000111010000000000110000 j#
b0 i#
b1000000 h#
b0 g#
b11111111111111111111111111111111 f#
b0 e#
b0 c#
b0 b#
b0 a#
b0 `#
b0 _#
b100000 ^#
b0 ]#
b0 \#
b0 [#
b0 Z#
b0 Y#
b0 X#
b0 W#
b0 V#
b0 U#
b0 T#
b0 S#
b0 R#
1P#
b100 O#
b0 N#
b100 M#
b100 L#
b0 K#
b0 J#
b0 I#
b0 H#
b0 G#
b0 F#
b0 E#
b0 D#
b0 C#
b0 B#
b11111111111111111111111111111111 A#
b0 @#
b0 ?#
b0 >#
b0 =#
b0 <#
b0 ;#
b0 9#
b0 8#
b0 7#
b0 6#
b0 5#
b100000000111010000000000110000 4#
b100 3#
12#
b0 1#
b0 0#
b0 /#
b0 .#
b0 -#
b0 ,#
b0 +#
b0 *#
b0 )#
b0 (#
b0 '#
b0 &#
b0 %#
b0 $#
b0 ##
b0 "#
b0 !#
b0 ~"
b0 }"
b1000 |"
b0 {"
b0 z"
b0 y"
b0 x"
b0 w"
b0 v"
b0 u"
b0 t"
b0 s"
0r"
0q"
0p"
b0 o"
b0 n"
b0 m"
b0 l"
b0 k"
b0 j"
b0 i"
b0 h"
b0 g"
b0 f"
b0 e"
b0 d"
b0 c"
b0 b"
b0 a"
b0 `"
b0 _"
b0 ^"
b0 ]"
b0 \"
b1100010 ["
b10 Z"
b0 Y"
b0 X"
b1000 W"
b10 V"
b0 U"
b0 T"
b1000 S"
b1000 R"
b10 Q"
b0 P"
0O"
0N"
b0 M"
b0 L"
b0 K"
b0 J"
b0 I"
b0 H"
b0 F"
b0 E"
b0 D"
b0 C"
b0 B"
b0 A"
b0 @"
b0 ?"
b0 >"
b0 ="
b0 <"
b1000 ;"
b0 :"
b0 9"
b0 8"
b0 7"
b0 6"
b0 5"
b0 4"
03"
02"
b0 1"
00"
b0 /"
0."
0-"
0,"
0+"
b0 *"
0)"
b0 ("
b0 '"
b0 &"
b0 %"
b0 $"
b0 #"
b0 ""
b0 !"
b0 ~
0}
0|
0{
b0 z
b0 y
b100000000111010000000000110000 x
0w
0v
0u
0t
b0 s
0r
0q
b0 p
b0 o
b0 n
b0 m
b0 l
b0 k
b100 j
b0 i
b0 h
b100 g
b0 f
b0 e
b0 d
b0 c
b0 b
b0 a
b0 `
b0 _
b0 ^
b11111111111111111111111111111111 ]
b0 \
1[
0Z
b0 Y
b0 X
b0 W
b0 V
b0 U
b0 T
b0 S
b0 R
b0 Q
0P
0O
b0 N
0M
0L
1K
0J
0I
0H
b0 G
b0 F
b0 E
b0 D
1C
1B
b0 A
0@
0?
b0 >
b0 =
b100000000111010000000000110000 <
b0 ;
b0 :
b11111111111111111111111111111111 9
b0 8
b0 7
b0 6
b100000000111010000000000110000 5
04
b0 3
b0 2
b11111111111111111111111111111111 1
b0 0
b0 /
bx .
bx -
bx ,
b0 +
1*
b0 )
0(
0'
b0 &
b11111111111111111111111111111111 %
b0 $
b0 #
b100000000111010000000000110000 "
b0 !
$end
#5
b1000000 h#
b100000 ^#
1(
#10
0(
#15
b1000 j
b1000 O#
0C
b100000000 >"
0[
13"
b0 Q"
b0 V"
b0 Z"
b11000000 1"
b11000000 H"
b100000000 b
b100000000 %#
b100000000 W#
b100000000 \#
b10 ;"
b10 R"
b10 S"
b10 |"
b10 W"
b110000 ["
b100000000001000000000000000100 "
b100000000001000000000000000100 5
b100000000001000000000000000100 <
b100000000001000000000000000100 x
b100000000001000000000000000100 4#
b100000000001000000000000000100 j#
b1 i#
b11101000000000011000000 s
b110000 T
b110000 $#
b110000 `#
b110000 z
b110000 _#
b11101 V
b11101 t"
b11101 "#
b11101 T#
b110000 &"
b110000 K"
b110000 T"
b1000 l
b1000 M"
b1000 Y"
b1000 g
b1000 3#
b1000 M#
b100 #
b100 3
b100 ;
b100 k
b100 N#
b100 R#
b11000100 /"
b11000100 I"
b100 i
b100 J"
b100 '#
b100 6#
b100000000111010000000000110000 y
b100000000111010000000000110000 5#
1J
b1000 :"
b1000 A"
b1000 (#
1Z
b11111111111111111111111111111111 \
b11111111111111111111111111111111 9#
b11111111111111111111111111111111 G#
b110000 ,
b1000 .
b100000000111010000000000110000 -
b1 +
1(
0*
#20
0(
#25
1C
b0 >"
b0 b
b0 %#
b0 W#
b0 \#
b1100 j
b1100 O#
b100000000 4"
b100000000 D"
b100000000 ]"
b100000000 J#
b11101 G
b11101 ^"
b11101 u"
b10000 1"
b10000 H"
0B
b110000 9"
b110000 C"
b110000 \"
b110000 5"
b110000 B"
b110000 E"
b11101 D
b11101 c#
b100000000000000010000 s
b100 T
b100 $#
b100 `#
b100 z
b100 _#
b100 V
b100 t"
b100 "#
b100 T#
b100 &"
b100 K"
b100 T"
b1100000000000000000000000101 "
b1100000000000000000000000101 5
b1100000000000000000000000101 <
b1100000000000000000000000101 x
b1100000000000000000000000101 4#
b1100000000000000000000000101 j#
b10 i#
1I
b100 h
b100 _"
b100 *#
b110000 S
b110000 F"
b110000 0#
b11101 U
b11101 j"
b11101 x"
b11101 /#
b11101 a#
b100000000 a
b100000000 ,#
b10 :"
b10 A"
b10 (#
12"
0Z
b11000 /"
b11000 I"
b1000 i
b1000 J"
b1000 '#
b1000 6#
b100000000001000000000000000100 y
b100000000001000000000000000100 5#
b1100 g
b1100 3#
b1100 M#
b1000 #
b1000 3
b1000 ;
b1000 k
b1000 N#
b1000 R#
b10 +
b100 ,
b100000000001000000000000000100 -
1(
#30
0(
#35
1?
b10100 j
b10100 O#
1r
1w
03"
b10100 1"
b10100 H"
b110100000 ["
b100 9"
b100 C"
b100 \"
b100 G
b100 ^"
b100 u"
b0 4"
b0 D"
b0 ]"
b0 J#
b1000000000000000000000010110 "
b1000000000000000000000010110 5
b1000000000000000000000010110 <
b1000000000000000000000010110 x
b1000000000000000000000010110 4#
b1000000000000000000000010110 j#
b11 i#
b10100 s
b101 T
b101 $#
b101 `#
b101 z
b101 _#
b0 V
b0 t"
b0 "#
b0 T#
b101 &"
b101 K"
b101 T"
b11 l
b11 M"
b11 Y"
b100 5"
b100 B"
b100 E"
b100 D
b100 c#
b1100 e#
b10000 g
b10000 3#
b10000 M#
b1100 #
b1100 3
b1100 ;
b1100 k
b1100 N#
b1100 R#
b100000 /"
b100000 I"
b1100 i
b1100 J"
b1100 '#
b1100 6#
b1100000000000000000000000101 y
b1100000000000000000000000101 5#
b1000 h
b1000 _"
b1000 *#
b100 S
b100 F"
b100 0#
b100 U
b100 j"
b100 x"
b100 /#
b100 a#
b0 a
b0 ,#
b100 f
b100 e"
b100 ?#
b11101 F
b11101 g"
b11101 h"
b11101 v"
b11101 @#
b100000000 &
b100000000 0
b100000000 8
b100000000 N
b100000000 f"
b100000000 g#
b110000 !
b110000 6
b110000 =
b110000 8"
b110000 b"
b110000 ;#
1H
b101 ,
b11 .
b1100000000000000000000000101 -
b11 +
1(
#40
0(
#45
0?
b1000 ;"
b1000 R"
b1000 S"
b1000 |"
b1000 W"
b110000 *"
b110000 Z#
0r
0w
1[
b10 Q"
b10 V"
b10 Z"
b110000 Y
b110000 8#
1B
b0 9"
b0 C"
b0 \"
b11000 j
b11000 O#
b0 1"
b0 H"
b1100010 ["
b110000 <"
b110000 7#
b1 e#
b0 D
b0 c#
b11111 G
b11111 ^"
b11111 u"
b0 5"
b0 B"
b0 E"
b0 s
b0 T
b0 $#
b0 `#
b0 z
b0 _#
b0 &"
b0 K"
b0 T"
b0 l
b0 M"
b0 Y"
b100011101111011111111111111000 "
b100011101111011111111111111000 5
b100011101111011111111111111000 <
b100011101111011111111111111000 x
b100011101111011111111111111000 4#
b100011101111011111111111111000 j#
b101 i#
b100 e
b100 F#
b11101 >
b11101 Y#
b11101 E
b11101 i"
b11101 w"
b11101 H#
b110000 7"
b110000 B#
b1000 f
b1000 e"
b1000 ?#
b100 F
b100 g"
b100 h"
b100 v"
b100 @#
b0 &
b0 0
b0 8
b0 N
b0 f"
b0 g#
b100 !
b100 6
b100 =
b100 8"
b100 b"
b100 ;#
b1100 h
b1100 _"
b1100 *#
b101 S
b101 F"
b101 0#
b0 U
b0 j"
b0 x"
b0 /#
b0 a#
1v
02"
b0 /"
b0 I"
b0 i
b0 J"
b0 '#
b0 6#
b0 y
b0 5#
b11000 g
b11000 3#
b11000 M#
b10100 #
b10100 3
b10100 ;
b10100 k
b10100 N#
b10100 R#
b100 +
b10110 ,
b10 .
b1000000000000000000000010110 -
1(
#50
0(
#55
b11100 j
b11100 O#
b110000 >"
1C
b110000 ="
0[
13"
b0 Q"
b0 V"
b0 Z"
b100 *"
b100 Z#
b11111111111111111111111111100000 1"
b11111111111111111111111111100000 H"
b110000 b
b110000 %#
b110000 W#
b110000 \#
b110000 d
b110000 &#
b110000 V#
b110000 ]#
b10 ;"
b10 R"
b10 S"
b10 |"
b10 W"
b110000 ["
b100 Y
b100 8#
b10101111101001000000000000000100 "
b10101111101001000000000000000100 5
b10101111101001000000000000000100 <
b10101111101001000000000000000100 x
b10101111101001000000000000000100 4#
b10101111101001000000000000000100 j#
b110 i#
b1110111101111111111111100000 s
b11111111111111111111111111111000 T
b11111111111111111111111111111000 $#
b11111111111111111111111111111000 `#
b1111111111111000 z
b1111111111111000 _#
b11111 R
b11111 ##
b11111 _
b11111 ~"
b11101 V
b11101 t"
b11101 "#
b11101 T#
b11101 X
b11101 s"
b11101 !#
b11101 S#
b111000 &"
b111000 K"
b111000 T"
b1000 l
b1000 M"
b1000 Y"
b0 G
b0 ^"
b0 u"
b0 e#
b100 <"
b100 7#
b11100 g
b11100 3#
b11100 M#
b11000 #
b11000 3
b11000 ;
b11000 k
b11000 N#
b11000 R#
b11111111111111111111111111111000 /"
b11111111111111111111111111111000 I"
b11000 i
b11000 J"
b11000 '#
b11000 6#
b100011101111011111111111111000 y
b100011101111011111111111111000 5#
b0 h
b0 _"
b0 *#
b0 S
b0 F"
b0 0#
0v
b1000 :"
b1000 A"
b1000 (#
1Z
b1100 f
b1100 e"
b1100 ?#
b11111 F
b11111 g"
b11111 h"
b11111 v"
b11111 @#
b0 !
b0 6
b0 =
b0 8"
b0 b"
b0 ;#
1u
b1000 e
b1000 F#
b100 >
b100 Y#
b100 E
b100 i"
b100 w"
b100 H#
b100 7"
b100 B#
b111000 ,
b1000 .
b100011101111011111111111111000 -
b101 +
1(
#60
0(
#65
b100 >"
0C
b101000 ="
b100 b
b100 %#
b100 W#
b100 \#
0K
1M
b100000 j
b100000 O#
b0 Y
b0 8#
b100100000000 n
b100100000000 `"
b100100000000 K#
b110000 4"
b110000 D"
b110000 ]"
b110000 J#
b110000 6"
b110000 ?"
b110000 I#
b11101 G
b11101 ^"
b11101 u"
b10000 1"
b10000 H"
b11000 ["
b0 <"
b0 7#
b1100 *"
b1100 Z#
0B
b101000 9"
b101000 C"
b101000 \"
b11111111111111111111111111111000 5"
b11111111111111111111111111111000 B"
b11111111111111111111111111111000 E"
b11101 D
b11101 c#
b1110100100000000000000010000 s
b100 T
b100 $#
b100 `#
b100 z
b100 _#
b0 R
b0 ##
b0 _
b0 ~"
b100 V
b100 t"
b100 "#
b100 T#
b100 &"
b100 K"
b100 T"
b101011 l
b101011 M"
b101011 Y"
b10101111101111110000000000000000 "
b10101111101111110000000000000000 5
b10101111101111110000000000000000 <
b10101111101111110000000000000000 x
b10101111101111110000000000000000 4#
b10101111101111110000000000000000 j#
b111 i#
b1100 e
b1100 F#
b11111 >
b11111 Y#
b11111 E
b11111 i"
b11111 w"
b11111 H#
b0 7"
b0 B#
1t
b0 f
b0 e"
b0 ?#
b0 F
b0 g"
b0 h"
b0 v"
b0 @#
0u
b11000 h
b11000 _"
b11000 *#
b11111 Q
b11111 @"
b11111 1#
b11111111111111111111111111111000 S
b11111111111111111111111111111000 F"
b11111111111111111111111111111000 0#
b11111 ^
b11111 -#
b11111 b#
b11101 U
b11101 j"
b11101 x"
b11101 /#
b11101 a#
b11101 W
b11101 k"
b11101 .#
b110000 a
b110000 ,#
b110000 c
b110000 +#
b10 :"
b10 A"
b10 (#
12"
0Z
b101100 /"
b101100 I"
b11100 i
b11100 J"
b11100 '#
b11100 6#
b10101111101001000000000000000100 y
b10101111101001000000000000000100 5#
b100000 g
b100000 3#
b100000 M#
b11100 #
b11100 3
b11100 ;
b11100 k
b11100 N#
b11100 R#
b110 +
b100 ,
b101011 .
b10101111101001000000000000000100 -
1(
#70
0(
#75
b1100 >"
b100100 j
b100100 O#
b1100 b
b1100 %#
b1100 W#
b1100 \#
b0 1"
b0 H"
b100 G
b100 ^"
b100 u"
b100 4"
b100 D"
b100 ]"
b100 J#
b10100000 n
b10100000 `"
b10100000 K#
b101000 6"
b101000 ?"
b101000 I#
b100000000010000000000000000010 "
b100000000010000000000000000010 5
b100000000010000000000000000010 <
b100000000010000000000000000010 x
b100000000010000000000000000010 4#
b100000000010000000000000000010 j#
b1000 i#
b1110111111000000000000000000 s
b0 T
b0 $#
b0 `#
b0 z
b0 _#
b11111 V
b11111 t"
b11111 "#
b11111 T#
b0 &"
b0 K"
b0 T"
b101100 9"
b101100 C"
b101100 \"
b100 5"
b100 B"
b100 E"
b100 D
b100 c#
b1010 e#
b10 ("
b10 m"
b10 n"
b0 *"
b0 Z#
b100100 g
b100100 3#
b100100 M#
b100000 #
b100000 3
b100000 ;
b100000 k
b100000 N#
b100000 R#
b100000 /"
b100000 I"
b100000 i
b100000 J"
b100000 '#
b100000 6#
b10101111101111110000000000000000 y
b10101111101111110000000000000000 5#
b11100 h
b11100 _"
b11100 *#
b0 Q
b0 @"
b0 1#
b100 S
b100 F"
b100 0#
b0 ^
b0 -#
b0 b#
b100 U
b100 j"
b100 x"
b100 /#
b100 a#
b100 a
b100 ,#
0J
1L
b100100000000 m
b100100000000 d"
b100100000000 y"
b11000 f
b11000 e"
b11000 ?#
b11101 F
b11101 g"
b11101 h"
b11101 v"
b11101 @#
b110000 &
b110000 0
b110000 8
b110000 N
b110000 f"
b110000 g#
b101000 !
b101000 6
b101000 =
b101000 8"
b101000 b"
b101000 ;#
b0 e
b0 F#
b0 >
b0 Y#
b0 E
b0 i"
b0 w"
b0 H#
0t
b0 ,
b10101111101111110000000000000000 -
b111 +
1(
#80
0(
