pipelined_mips_tb.vcd
$date
	Sun Dec 14 19:55:41 2025
$end
$version
	Icarus Verilog
$end
$timescale
	1s
$end
$scope module tb_pipelined_mips_top $end
$var wire 32 ! alu_out [31:0] $end
$var wire 32 " instr [31:0] $end
$var wire 32 # pc [31:0] $end
$var wire 32 $ rd3 [31:0] $end
$var wire 32 % rd_dm [31:0] $end
$var wire 32 & wd_dm [31:0] $end
$var wire 1 ' we_dm $end
$var reg 1 ( clk $end
$var reg 5 ) ra3 [4:0] $end
$var reg 1 * rst $end
$var integer 32 + cycle_count [31:0] $end
$var integer 32 , instruction_count [31:0] $end
$scope function decode_instruction $end
$var reg 6 - funct [5:0] $end
$var reg 32 . inst [31:0] $end
$var reg 6 / opcode [5:0] $end
$upscope $end
$scope module DUT $end
$var wire 1 ( clk $end
$var wire 5 0 ra3 [4:0] $end
$var wire 1 * rst $end
$var wire 32 1 write_data [31:0] $end
$var wire 32 2 read_data [31:0] $end
$var wire 32 3 rd3 [31:0] $end
$var wire 32 4 pc [31:0] $end
$var wire 1 5 mem_write $end
$var wire 32 6 instr [31:0] $end
$var wire 32 7 data_addr [31:0] $end
$scope module cpu $end
$var wire 1 ( clk $end
$var wire 5 8 ra3 [4:0] $end
$var wire 1 * rst $end
$var wire 1 5 we_dm $end
$var wire 32 9 wd_dm [31:0] $end
$var wire 32 : rd_dm [31:0] $end
$var wire 32 ; rd3 [31:0] $end
$var wire 32 < pc_current [31:0] $end
$var wire 32 = instr [31:0] $end
$var wire 32 > alu_out [31:0] $end
$scope module dp $end
$var wire 1 ( clk $end
$var wire 5 ? final_write_reg_W [4:0] $end
$var wire 1 @ flush_D $end
$var wire 2 A forward_A [1:0] $end
$var wire 2 B forward_B [1:0] $end
$var wire 1 C pc_src_D $end
$var wire 5 D ra3 [4:0] $end
$var wire 1 * rst $end
$var wire 1 E zero_E $end
$var wire 1 F zero_D $end
$var wire 5 G write_reg_tmp_E [4:0] $end
$var wire 5 H write_reg_W [4:0] $end
$var wire 5 I write_reg_M [4:0] $end
$var wire 5 J write_reg_E [4:0] $end
$var wire 1 K we_reg_W $end
$var wire 1 L we_reg_M $end
$var wire 1 M we_reg_E $end
$var wire 1 N we_reg_D $end
$var wire 1 5 we_dm_M $end
$var wire 1 O we_dm_E $end
$var wire 1 P we_dm_D $end
$var wire 32 Q wd_dm_M [31:0] $end
$var wire 1 R valid_inst_D $end
$var wire 1 S valid_W $end
$var wire 1 T valid_M $end
$var wire 1 U valid_E $end
$var wire 1 V valid_D $end
$var wire 1 W stall_F $end
$var wire 1 X stall_D $end
$var wire 5 Y shamt_E [4:0] $end
$var wire 5 Z shamt_D [4:0] $end
$var wire 32 [ sext_imm_E [31:0] $end
$var wire 32 \ sext_imm_D [31:0] $end
$var wire 5 ] rt_E [4:0] $end
$var wire 5 ^ rt_D [4:0] $end
$var wire 5 _ rs_E [4:0] $end
$var wire 5 ` rs_D [4:0] $end
$var wire 32 a result_W [31:0] $end
$var wire 1 b reg_dst_E $end
$var wire 1 c reg_dst_D $end
$var wire 32 d rd_dm_W [31:0] $end
$var wire 32 e rd_dm [31:0] $end
$var wire 5 f rd_E [4:0] $end
$var wire 5 g rd_D [4:0] $end
$var wire 32 h rd3 [31:0] $end
$var wire 32 i rd2_E [31:0] $end
$var wire 32 j rd2_D [31:0] $end
$var wire 32 k rd1_E [31:0] $end
$var wire 32 l rd1_D [31:0] $end
$var wire 32 m pc_plus4_W [31:0] $end
$var wire 32 n pc_plus4_M [31:0] $end
$var wire 32 o pc_plus4_F [31:0] $end
$var wire 32 p pc_plus4_E [31:0] $end
$var wire 32 q pc_plus4_D [31:0] $end
$var wire 32 r pc_next_F [31:0] $end
$var wire 32 s pc_F [31:0] $end
$var wire 6 t opcode_D [5:0] $end
$var wire 64 u mult_product_M [63:0] $end
$var wire 64 v mult_product_E [63:0] $end
$var wire 32 w lo_out_W [31:0] $end
$var wire 32 x lo_out_M [31:0] $end
$var wire 1 y jump_reg_D $end
$var wire 1 z jump_D $end
$var wire 32 { jta_D [31:0] $end
$var wire 1 | jal_W $end
$var wire 1 } jal_M $end
$var wire 1 ~ jal_E $end
$var wire 1 !" jal_D $end
$var wire 32 "" instr_F [31:0] $end
$var wire 32 #" instr_D [31:0] $end
$var wire 16 $" imm_D [15:0] $end
$var wire 1 %" hilo_wd_M $end
$var wire 1 &" hilo_wd_E $end
$var wire 1 '" hilo_wd_D $end
$var wire 2 (" hilo_mux_ctrl_W [1:0] $end
$var wire 2 )" hilo_mux_ctrl_M [1:0] $end
$var wire 2 *" hilo_mux_ctrl_E [1:0] $end
$var wire 2 +" hilo_mux_ctrl_D [1:0] $end
$var wire 32 ," hi_out_W [31:0] $end
$var wire 32 -" hi_out_M [31:0] $end
$var wire 6 ." funct_D [5:0] $end
$var wire 2 /" forward_B_haz [1:0] $end
$var wire 2 0" forward_A_haz [1:0] $end
$var wire 1 1" flush_E $end
$var wire 1 2" flush_D_haz $end
$var wire 32 3" final_wd_W [31:0] $end
$var wire 1 4" dm2reg_W $end
$var wire 1 5" dm2reg_M $end
$var wire 1 6" dm2reg_E $end
$var wire 1 7" dm2reg_D $end
$var wire 32 8" bta_D [31:0] $end
$var wire 1 9" branch_D $end
$var wire 32 :" ba_D [31:0] $end
$var wire 1 ;" alu_src_E $end
$var wire 1 <" alu_src_D $end
$var wire 32 =" alu_pb_fwd [31:0] $end
$var wire 32 >" alu_pb_E [31:0] $end
$var wire 32 ?" alu_pa_fwd [31:0] $end
$var wire 32 @" alu_out_W [31:0] $end
$var wire 32 A" alu_out_M [31:0] $end
$var wire 32 B" alu_out_E [31:0] $end
$var wire 4 C" alu_ctrl_E [3:0] $end
$var wire 4 D" alu_ctrl_D [3:0] $end
$var reg 32 E" alu_or_hilo_W [31:0] $end
$var reg 32 F" cmp1_D [31:0] $end
$var reg 32 G" cmp2_D [31:0] $end
$scope module alu0 $end
$var wire 32 H" a [31:0] $end
$var wire 1 E zero $end
$var wire 5 I" shamt [4:0] $end
$var wire 4 J" op [3:0] $end
$var wire 32 K" b [31:0] $end
$var reg 32 L" y [31:0] $end
$upscope $end
$scope module alu_src_mux $end
$var wire 32 M" a [31:0] $end
$var wire 32 N" y [31:0] $end
$var wire 1 ;" sel $end
$var wire 32 O" b [31:0] $end
$var parameter 32 P" WIDTH $end
$upscope $end
$scope module branch_adder $end
$var wire 32 Q" b [31:0] $end
$var wire 32 R" y [31:0] $end
$var wire 32 S" a [31:0] $end
$upscope $end
$scope module cu $end
$var wire 6 T" funct [5:0] $end
$var wire 2 U" hilo_mux_ctrl [1:0] $end
$var wire 1 '" hilo_wd $end
$var wire 1 y jump_reg $end
$var wire 6 V" opcode [5:0] $end
$var wire 1 N we_reg $end
$var wire 1 P we_dm $end
$var wire 1 R valid_inst $end
$var wire 1 c reg_dst $end
$var wire 1 z jump $end
$var wire 1 W" jr_signal $end
$var wire 1 !" jal $end
$var wire 1 X" hilo_wd_internal $end
$var wire 2 Y" hilo_mux_internal [1:0] $end
$var wire 1 7" dm2reg $end
$var wire 1 9" branch $end
$var wire 1 <" alu_src $end
$var wire 2 Z" alu_op [1:0] $end
$var wire 4 [" alu_ctrl [3:0] $end
$scope module ad $end
$var wire 4 \" alu_ctrl [3:0] $end
$var wire 6 ]" funct [5:0] $end
$var wire 1 W" jr $end
$var wire 1 X" hilo_wd $end
$var wire 2 ^" hilo_mux_ctrl [1:0] $end
$var wire 2 _" alu_op [1:0] $end
$var reg 4 `" ctrl [3:0] $end
$var reg 2 a" hilo_mux_r [1:0] $end
$var reg 1 X" hilo_wd_r $end
$var reg 1 W" jr_r $end
$upscope $end
$scope module md $end
$var wire 6 b" opcode [5:0] $end
$var wire 1 N we_reg $end
$var wire 1 P we_dm $end
$var wire 1 R valid_inst $end
$var wire 1 c reg_dst $end
$var wire 1 z jump $end
$var wire 1 !" jal $end
$var wire 1 7" dm2reg $end
$var wire 1 9" branch $end
$var wire 1 <" alu_src $end
$var wire 2 c" alu_op [1:0] $end
$var reg 11 d" ctrl [10:0] $end
$upscope $end
$upscope $end
$scope module ex_mem $end
$var wire 32 e" alu_out_E [31:0] $end
$var wire 1 ( clk $end
$var wire 1 * rst $end
$var wire 32 f" wd_dm_E [31:0] $end
$var wire 5 g" write_reg_E [4:0] $end
$var wire 1 M we_reg_E $end
$var wire 1 O we_dm_E $end
$var wire 1 U valid_E $end
$var wire 32 h" pc_plus4_E [31:0] $end
$var wire 64 i" mult_product_E [63:0] $end
$var wire 1 ~ jal_E $end
$var wire 1 &" hilo_wd_E $end
$var wire 2 j" hilo_mux_ctrl_E [1:0] $end
$var wire 1 6" dm2reg_E $end
$var reg 32 k" alu_out_M [31:0] $end
$var reg 1 5" dm2reg_M $end
$var reg 2 l" hilo_mux_ctrl_M [1:0] $end
$var reg 1 %" hilo_wd_M $end
$var reg 1 } jal_M $end
$var reg 64 m" mult_product_M [63:0] $end
$var reg 32 n" pc_plus4_M [31:0] $end
$var reg 1 T valid_M $end
$var reg 32 o" wd_dm_M [31:0] $end
$var reg 1 5 we_dm_M $end
$var reg 1 L we_reg_M $end
$var reg 5 p" write_reg_M [4:0] $end
$upscope $end
$scope module hdu $end
$var wire 1 C BranchD $end
$var wire 6 q" FunctD [5:0] $end
$var wire 1 z JumpD $end
$var wire 1 y JumpRegD $end
$var wire 1 5" MemToRegM $end
$var wire 6 r" OpcodeD [5:0] $end
$var wire 1 L RegWriteM $end
$var wire 5 s" RsD [4:0] $end
$var wire 5 t" RtD [4:0] $end
$var wire 5 u" WriteRegE [4:0] $end
$var wire 5 v" WriteRegM [4:0] $end
$var wire 1 ( clk $end
$var wire 1 w" control_flush $end
$var wire 1 x" is_mult_D $end
$var wire 1 y" lwstall $end
$var wire 1 z" mult_stall $end
$var wire 1 * rst $end
$var wire 5 {" WriteRegW [4:0] $end
$var wire 5 |" RtE [4:0] $end
$var wire 5 }" RsE [4:0] $end
$var wire 1 K RegWriteW $end
$var wire 1 M RegWriteE $end
$var wire 1 6" MemToRegE $end
$var reg 1 2" FlushD $end
$var reg 1 1" FlushE $end
$var reg 2 ~" ForwardAE [1:0] $end
$var reg 2 !# ForwardBE [1:0] $end
$var reg 1 X StallD $end
$var reg 1 W StallF $end
$var reg 2 "# mult_cnt [1:0] $end
$upscope $end
$scope module hilo $end
$var wire 1 ( clk $end
$var wire 64 ## product [63:0] $end
$var wire 1 * rst $end
$var wire 1 %" we $end
$var reg 32 $# hi [31:0] $end
$var reg 32 %# lo [31:0] $end
$upscope $end
$scope module id_ex $end
$var wire 4 &# alu_ctrl_D [3:0] $end
$var wire 1 <" alu_src_D $end
$var wire 1 ( clk $end
$var wire 1 7" dm2reg_D $end
$var wire 1 1" flush $end
$var wire 2 '# hilo_mux_ctrl_D [1:0] $end
$var wire 1 '" hilo_wd_D $end
$var wire 1 !" jal_D $end
$var wire 5 (# rd_D [4:0] $end
$var wire 1 c reg_dst_D $end
$var wire 5 )# rs_D [4:0] $end
$var wire 1 * rst $end
$var wire 5 *# rt_D [4:0] $end
$var wire 5 +# shamt_D [4:0] $end
$var wire 1 ,# valid_D $end
$var wire 1 P we_dm_D $end
$var wire 1 N we_reg_D $end
$var wire 32 -# sext_imm_D [31:0] $end
$var wire 32 .# rd2_D [31:0] $end
$var wire 32 /# rd1_D [31:0] $end
$var wire 32 0# pc_plus4_D [31:0] $end
$var reg 4 1# alu_ctrl_E [3:0] $end
$var reg 1 ;" alu_src_E $end
$var reg 1 6" dm2reg_E $end
$var reg 2 2# hilo_mux_ctrl_E [1:0] $end
$var reg 1 &" hilo_wd_E $end
$var reg 1 ~ jal_E $end
$var reg 32 3# pc_plus4_E [31:0] $end
$var reg 32 4# rd1_E [31:0] $end
$var reg 32 5# rd2_E [31:0] $end
$var reg 5 6# rd_E [4:0] $end
$var reg 1 b reg_dst_E $end
$var reg 5 7# rs_E [4:0] $end
$var reg 5 8# rt_E [4:0] $end
$var reg 32 9# sext_imm_E [31:0] $end
$var reg 5 :# shamt_E [4:0] $end
$var reg 1 U valid_E $end
$var reg 1 O we_dm_E $end
$var reg 1 M we_reg_E $end
$upscope $end
$scope module if_id $end
$var wire 1 ( clk $end
$var wire 1 ;# enable $end
$var wire 1 @ flush $end
$var wire 1 * rst $end
$var wire 32 <# pc_plus4_F [31:0] $end
$var wire 32 =# instr_F [31:0] $end
$var reg 32 ># instr_D [31:0] $end
$var reg 32 ?# pc_plus4_D [31:0] $end
$var reg 1 V valid_D $end
$upscope $end
$scope module mem_to_reg_mux $end
$var wire 32 @# a [31:0] $end
$var wire 32 A# y [31:0] $end
$var wire 1 4" sel $end
$var wire 32 B# b [31:0] $end
$var parameter 32 C# WIDTH $end
$upscope $end
$scope module mem_wb $end
$var wire 32 D# alu_out_M [31:0] $end
$var wire 1 ( clk $end
$var wire 1 5" dm2reg_M $end
$var wire 32 E# hi_out_M [31:0] $end
$var wire 2 F# hilo_mux_ctrl_M [1:0] $end
$var wire 1 } jal_M $end
$var wire 32 G# lo_out_M [31:0] $end
$var wire 32 H# pc_plus4_M [31:0] $end
$var wire 1 * rst $end
$var wire 1 T valid_M $end
$var wire 1 L we_reg_M $end
$var wire 5 I# write_reg_M [4:0] $end
$var wire 32 J# rd_dm_M [31:0] $end
$var reg 32 K# alu_out_W [31:0] $end
$var reg 1 4" dm2reg_W $end
$var reg 32 L# hi_out_W [31:0] $end
$var reg 2 M# hilo_mux_ctrl_W [1:0] $end
$var reg 1 | jal_W $end
$var reg 32 N# lo_out_W [31:0] $end
$var reg 32 O# pc_plus4_W [31:0] $end
$var reg 32 P# rd_dm_W [31:0] $end
$var reg 1 S valid_W $end
$var reg 1 K we_reg_W $end
$var reg 5 Q# write_reg_W [4:0] $end
$upscope $end
$scope module mult $end
$var wire 32 R# a [31:0] $end
$var wire 32 S# b [31:0] $end
$var wire 64 T# product [63:0] $end
$upscope $end
$scope module pc_adder $end
$var wire 32 U# b [31:0] $end
$var wire 32 V# y [31:0] $end
$var wire 32 W# a [31:0] $end
$upscope $end
$scope module pc_reg $end
$var wire 1 ( clk $end
$var wire 32 X# d [31:0] $end
$var wire 1 Y# en $end
$var wire 1 * rst $end
$var parameter 32 Z# WIDTH $end
$var reg 32 [# q [31:0] $end
$upscope $end
$scope module rf $end
$var wire 1 ( clk $end
$var wire 5 \# ra1 [4:0] $end
$var wire 5 ]# ra2 [4:0] $end
$var wire 5 ^# ra3 [4:0] $end
$var wire 32 _# rd1 [31:0] $end
$var wire 32 `# rd2 [31:0] $end
$var wire 32 a# rd3 [31:0] $end
$var wire 1 * rst $end
$var wire 5 b# wa [4:0] $end
$var wire 32 c# wd [31:0] $end
$var wire 1 K we $end
$var wire 32 d# bypass_rd3 [31:0] $end
$var wire 32 e# bypass_rd2 [31:0] $end
$var wire 32 f# bypass_rd1 [31:0] $end
$var integer 32 g# n [31:0] $end
$upscope $end
$scope module se $end
$var wire 16 h# a [15:0] $end
$var wire 32 i# y [31:0] $end
$upscope $end
$scope module write_reg_mux $end
$var wire 5 j# a [4:0] $end
$var wire 5 k# b [4:0] $end
$var wire 1 b sel $end
$var wire 5 l# y [4:0] $end
$var parameter 32 m# WIDTH $end
$upscope $end
$upscope $end
$upscope $end
$scope module data_memory $end
$var wire 6 n# a [5:0] $end
$var wire 1 ( clk $end
$var wire 32 o# rd [31:0] $end
$var wire 1 * rst $end
$var wire 32 p# wd [31:0] $end
$var wire 1 5 we $end
$var integer 32 q# n [31:0] $end
$upscope $end
$scope module instruction_memory $end
$var wire 6 r# a [5:0] $end
$var wire 32 s# rd [31:0] $end
$upscope $end
$upscope $end
$upscope $end
$enddefinitions $end
$comment Show the parameter values. $end
$dumpall
b101 m#
b100000 Z#
b100000 C#
b100000 P"
$end
#0
$dumpvars
b100000000111010000000000110000 s#
b0 r#
b1000000 q#
b0 p#
b11111111111111111111111111111111 o#
b0 n#
b0 l#
b0 k#
b0 j#
b0 i#
b0 h#
b100000 g#
b0 f#
b0 e#
b0 d#
b0 c#
b0 b#
b0 a#
b0 `#
b0 _#
b0 ^#
b0 ]#
b0 \#
b0 [#
1Y#
b100 X#
b0 W#
b100 V#
b100 U#
b0 T#
b0 S#
b0 R#
b0 Q#
b0 P#
b0 O#
b0 N#
b0 M#
b0 L#
b0 K#
b11111111111111111111111111111111 J#
b0 I#
b0 H#
b0 G#
b0 F#
b0 E#
b0 D#
b0 B#
b0 A#
b0 @#
b0 ?#
b0 >#
b100000000111010000000000110000 =#
b100 <#
1;#
b0 :#
b0 9#
b0 8#
b0 7#
b0 6#
b0 5#
b0 4#
b0 3#
b0 2#
b0 1#
b0 0#
b0 /#
b0 .#
b0 -#
0,#
b0 +#
b0 *#
b0 )#
b0 (#
b0 '#
b1000 &#
b0 %#
b0 $#
b0 ##
b0 "#
b0 !#
b0 ~"
b0 }"
b0 |"
b0 {"
0z"
0y"
0x"
0w"
b0 v"
b0 u"
b0 t"
b0 s"
b0 r"
b0 q"
b0 p"
b0 o"
b0 n"
b0 m"
b0 l"
b0 k"
b0 j"
b0 i"
b0 h"
b0 g"
b0 f"
b0 e"
b11000101 d"
b10 c"
b0 b"
b0 a"
b1000 `"
b10 _"
b0 ^"
b0 ]"
b1000 \"
b1000 ["
b10 Z"
b0 Y"
0X"
0W"
b0 V"
b0 U"
b0 T"
b0 S"
b0 R"
b0 Q"
b0 O"
b0 N"
b0 M"
b0 L"
b0 K"
b0 J"
b0 I"
b0 H"
b0 G"
b0 F"
b0 E"
b1000 D"
b0 C"
b0 B"
b0 A"
b0 @"
b0 ?"
b0 >"
b0 ="
0<"
0;"
b0 :"
09"
b0 8"
07"
06"
05"
04"
b0 3"
02"
01"
b0 0"
b0 /"
b0 ."
b0 -"
b0 ,"
b0 +"
b0 *"
b0 )"
b0 ("
0'"
0&"
0%"
b0 $"
b0 #"
b100000000111010000000000110000 ""
0!"
0~
0}
0|
b0 {
0z
0y
b0 x
b0 w
b0 v
b0 u
b0 t
b0 s
b100 r
b0 q
b0 p
b100 o
b0 n
b0 m
b0 l
b0 k
b0 j
b0 i
b0 h
b0 g
b0 f
b11111111111111111111111111111111 e
b0 d
1c
0b
b0 a
b0 `
b0 _
b0 ^
b0 ]
b0 \
b0 [
b0 Z
b0 Y
0X
0W
0V
0U
0T
0S
1R
b0 Q
0P
0O
1N
0M
0L
0K
b0 J
b0 I
b0 H
b0 G
1F
1E
b0 D
0C
b0 B
b0 A
0@
b0 ?
b0 >
b100000000111010000000000110000 =
b0 <
b0 ;
b11111111111111111111111111111111 :
b0 9
b0 8
b0 7
b100000000111010000000000110000 6
05
b0 4
b0 3
b11111111111111111111111111111111 2
b0 1
b0 0
bx /
bx .
bx -
b0 ,
b0 +
1*
b0 )
0(
0'
b0 &
b11111111111111111111111111111111 %
b0 $
b0 #
b100000000111010000000000110000 "
b0 !
$end
#5
b1000000 q#
b100000 g#
1(
#10
0(
#15
b1000 r
b1000 X#
0F
b100000000 G"
0c
1<"
b0 Z"
b0 _"
b0 c"
b11000000 :"
b11000000 Q"
b100000000 j
b100000000 .#
b100000000 `#
b100000000 e#
b10 D"
b10 ["
b10 \"
b10 &#
b10 `"
b1100001 d"
b100000000001000000000000000100 "
b100000000001000000000000000100 6
b100000000001000000000000000100 =
b100000000001000000000000000100 ""
b100000000001000000000000000100 =#
b100000000001000000000000000100 s#
b1 r#
1,#
b11101000000000011000000 {
b110000 \
b110000 -#
b110000 i#
b110000 $"
b110000 h#
b11101 ^
b11101 t"
b11101 *#
b11101 ]#
b110000 ."
b110000 T"
b110000 ]"
b110000 q"
b1000 t
b1000 V"
b1000 b"
b1000 r"
b1000 o
b1000 <#
b1000 V#
b100 #
b100 4
b100 <
b100 s
b100 W#
b100 [#
1V
b11000100 8"
b11000100 R"
b100 q
b100 S"
b100 0#
b100 ?#
b100000000111010000000000110000 #"
b100000000111010000000000110000 >#
1M
b1000 C"
b1000 J"
b1000 1#
1b
b11111111111111111111111111111111 d
b11111111111111111111111111111111 B#
b11111111111111111111111111111111 P#
b1 +
1(
0*
#20
b100 -
b1000 /
b100000000001000000000000000100 .
0(
#25
1F
b0 G"
b0 j
b0 .#
b0 `#
b0 e#
b1100 r
b1100 X#
b100000000 ="
b100000000 M"
b100000000 f"
b100000000 S#
b11101 J
b11101 g"
b11101 u"
b10000 :"
b10000 Q"
0E
b110000 B"
b110000 L"
b110000 e"
b110000 >"
b110000 K"
b110000 N"
b11101 G
b11101 l#
b100000000000000010000 {
b100 \
b100 -#
b100 i#
b100 $"
b100 h#
b100 ^
b100 t"
b100 *#
b100 ]#
b100 ."
b100 T"
b100 ]"
b100 q"
b1100000000000000000000000101 "
b1100000000000000000000000101 6
b1100000000000000000000000101 =
b1100000000000000000000000101 ""
b1100000000000000000000000101 =#
b1100000000000000000000000101 s#
b10 r#
1L
b100 p
b100 h"
b100 3#
b110000 [
b110000 O"
b110000 9#
b11101 ]
b11101 |"
b11101 8#
b11101 j#
b100000000 i
b100000000 5#
1U
b10 C"
b10 J"
b10 1#
1;"
0b
b11000 8"
b11000 R"
b1000 q
b1000 S"
b1000 0#
b1000 ?#
b100000000001000000000000000100 #"
b100000000001000000000000000100 >#
b1100 o
b1100 <#
b1100 V#
b1000 #
b1000 4
b1000 <
b1000 s
b1000 W#
b1000 [#
b10 +
1(
#30
b101 -
b11 /
b1100000000000000000000000101 .
0(
#35
1@
12"
1w"
b10100 r
b10100 X#
1z
1!"
0<"
b10100 :"
b10100 Q"
b1101000001 d"
b100 B"
b100 L"
b100 e"
b100 J
b100 g"
b100 u"
b0 ="
b0 M"
b0 f"
b0 S#
b1000000000000000000000010110 "
b1000000000000000000000010110 6
b1000000000000000000000010110 =
b1000000000000000000000010110 ""
b1000000000000000000000010110 =#
b1000000000000000000000010110 s#
b11 r#
b10100 {
b101 \
b101 -#
b101 i#
b101 $"
b101 h#
b0 ^
b0 t"
b0 *#
b0 ]#
b101 ."
b101 T"
b101 ]"
b101 q"
b11 t
b11 V"
b11 b"
b11 r"
b100 >"
b100 K"
b100 N"
b100 G
b100 l#
b1100 n#
b10000 o
b10000 <#
b10000 V#
b1100 #
b1100 4
b1100 <
b1100 s
b1100 W#
b1100 [#
b100000 8"
b100000 R"
b1100 q
b1100 S"
b1100 0#
b1100 ?#
b1100000000000000000000000101 #"
b1100000000000000000000000101 >#
b1000 p
b1000 h"
b1000 3#
b100 [
b100 O"
b100 9#
b100 ]
b100 |"
b100 8#
b100 j#
b0 i
b0 5#
b100 n
b100 n"
b100 H#
b11101 I
b11101 p"
b11101 v"
b11101 I#
b100000000 &
b100000000 1
b100000000 9
b100000000 Q
b100000000 o"
b100000000 p#
b110000 !
b110000 7
b110000 >
b110000 A"
b110000 k"
b110000 D#
1T
1K
b11 +
1(
#40
b10110 -
b10 /
b1000000000000000000000010110 .
0(
#45
0@
02"
0w"
b1000 D"
b1000 ["
b1000 \"
b1000 &#
b1000 `"
b110000 3"
b110000 c#
0z
0!"
1c
b10 Z"
b10 _"
b10 c"
b110000 a
b110000 A#
1E
b0 B"
b0 L"
b0 e"
b11000 r
b11000 X#
b0 :"
b0 Q"
b11000101 d"
b110000 E"
b110000 @#
b1 n#
b0 G
b0 l#
b11111 J
b11111 g"
b11111 u"
b0 >"
b0 K"
b0 N"
0,#
b0 {
b0 \
b0 -#
b0 i#
b0 $"
b0 h#
b0 ."
b0 T"
b0 ]"
b0 q"
b0 t
b0 V"
b0 b"
b0 r"
b100011101111011111111111111000 "
b100011101111011111111111111000 6
b100011101111011111111111111000 =
b100011101111011111111111111000 ""
b100011101111011111111111111000 =#
b100011101111011111111111111000 s#
b101 r#
b100 m
b100 O#
b11101 ?
b11101 b#
b11101 H
b11101 {"
b11101 Q#
b110000 @"
b110000 K#
1S
b1000 n
b1000 n"
b1000 H#
b100 I
b100 p"
b100 v"
b100 I#
b0 &
b0 1
b0 9
b0 Q
b0 o"
b0 p#
b100 !
b100 7
b100 >
b100 A"
b100 k"
b100 D#
b1100 p
b1100 h"
b1100 3#
b101 [
b101 O"
b101 9#
b0 ]
b0 |"
b0 8#
b0 j#
1~
0;"
0V
b0 8"
b0 R"
b0 q
b0 S"
b0 0#
b0 ?#
b0 #"
b0 >#
b11000 o
b11000 <#
b11000 V#
b10100 #
b10100 4
b10100 <
b10100 s
b10100 W#
b10100 [#
b100 +
1(
#50
b111000 -
b1000 /
b100011101111011111111111111000 .
0(
#55
b11100 r
b11100 X#
b110000 G"
1F
b110000 F"
0c
1<"
b0 Z"
b0 _"
b0 c"
b100 3"
b100 c#
b11111111111111111111111111100000 :"
b11111111111111111111111111100000 Q"
b110000 j
b110000 .#
b110000 `#
b110000 e#
b110000 l
b110000 /#
b110000 _#
b110000 f#
b10 D"
b10 ["
b10 \"
b10 &#
b10 `"
b1100001 d"
b100 a
b100 A#
b10101111101001000000000000000100 "
b10101111101001000000000000000100 6
b10101111101001000000000000000100 =
b10101111101001000000000000000100 ""
b10101111101001000000000000000100 =#
b10101111101001000000000000000100 s#
b110 r#
1,#
b1110111101111111111111100000 {
b11111111111111111111111111111000 \
b11111111111111111111111111111000 -#
b11111111111111111111111111111000 i#
b1111111111111000 $"
b1111111111111000 h#
b11111 Z
b11111 +#
b11111 g
b11111 (#
b11101 ^
b11101 t"
b11101 *#
b11101 ]#
b11101 `
b11101 s"
b11101 )#
b11101 \#
b111000 ."
b111000 T"
b111000 ]"
b111000 q"
b1000 t
b1000 V"
b1000 b"
b1000 r"
b0 J
b0 g"
b0 u"
b0 n#
b100 E"
b100 @#
b11100 o
b11100 <#
b11100 V#
b11000 #
b11000 4
b11000 <
b11000 s
b11000 W#
b11000 [#
1V
b11111111111111111111111111111000 8"
b11111111111111111111111111111000 R"
b11000 q
b11000 S"
b11000 0#
b11000 ?#
b100011101111011111111111111000 #"
b100011101111011111111111111000 >#
b0 p
b0 h"
b0 3#
b0 [
b0 O"
b0 9#
0U
0~
b1000 C"
b1000 J"
b1000 1#
1b
b1100 n
b1100 n"
b1100 H#
b11111 I
b11111 p"
b11111 v"
b11111 I#
b0 !
b0 7
b0 >
b0 A"
b0 k"
b0 D#
1}
b1000 m
b1000 O#
b100 ?
b100 b#
b100 H
b100 {"
b100 Q#
b100 @"
b100 K#
b1 ,
b101 +
1(
#60
b100 -
b101011 /
b10101111101001000000000000000100 .
0(
#65
b100 G"
0F
b101000 F"
b100 j
b100 .#
b100 `#
b100 e#
0N
1P
b100000 r
b100000 X#
b0 a
b0 A#
b100100000000 v
b100100000000 i"
b100100000000 T#
b110000 ="
b110000 M"
b110000 f"
b110000 S#
b110000 ?"
b110000 H"
b110000 R#
b11101 J
b11101 g"
b11101 u"
b10000 :"
b10000 Q"
b110001 d"
b0 E"
b0 @#
b1100 3"
b1100 c#
0E
b101000 B"
b101000 L"
b101000 e"
b11111111111111111111111111111000 >"
b11111111111111111111111111111000 K"
b11111111111111111111111111111000 N"
b11101 G
b11101 l#
b1110100100000000000000010000 {
b100 \
b100 -#
b100 i#
b100 $"
b100 h#
b0 Z
b0 +#
b0 g
b0 (#
b100 ^
b100 t"
b100 *#
b100 ]#
b100 ."
b100 T"
b100 ]"
b100 q"
b101011 t
b101011 V"
b101011 b"
b101011 r"
b10101111101111110000000000000000 "
b10101111101111110000000000000000 6
b10101111101111110000000000000000 =
b10101111101111110000000000000000 ""
b10101111101111110000000000000000 =#
b10101111101111110000000000000000 s#
b111 r#
b1100 m
b1100 O#
b11111 ?
b11111 b#
b11111 H
b11111 {"
b11111 Q#
b0 @"
b0 K#
1|
b0 n
b0 n"
b0 H#
b0 I
b0 p"
b0 v"
b0 I#
0T
0}
b11000 p
b11000 h"
b11000 3#
b11111 Y
b11111 I"
b11111 :#
b11111111111111111111111111111000 [
b11111111111111111111111111111000 O"
b11111111111111111111111111111000 9#
b11111 f
b11111 6#
b11111 k#
b11101 ]
b11101 |"
b11101 8#
b11101 j#
b11101 _
b11101 }"
b11101 7#
b110000 i
b110000 5#
b110000 k
b110000 4#
1U
b10 C"
b10 J"
b10 1#
1;"
0b
b101100 8"
b101100 R"
b11100 q
b11100 S"
b11100 0#
b11100 ?#
b10101111101001000000000000000100 #"
b10101111101001000000000000000100 >#
b100000 o
b100000 <#
b100000 V#
b11100 #
b11100 4
b11100 <
b11100 s
b11100 W#
b11100 [#
b10 ,
b110 +
1(
#70
b0 -
b10101111101111110000000000000000 .
0(
